::1()--query--tables(delete from table_user_online where time < 1656122195) (09:06:35 25/06/2022)
::1()--query--tables(delete from table_user_online where time < 1656122196) (09:06:36 25/06/2022)
::1()--query--tables(delete from table_user_online where time < 1656122197) (09:06:37 25/06/2022)
::1()--query--tables(delete from table_user_online where time < 1656122197) (09:06:37 25/06/2022)
::1()--query--tables(delete from table_user_online where time < 1656122197) (09:06:37 25/06/2022)
::1()--query--tables(delete from table_user_online where time < 1656122198) (09:06:38 25/06/2022)
::1()--query--tables(delete from table_user_online where time < 1656122198) (09:06:38 25/06/2022)
::1()--query--tables(delete from table_user_online where time < 1656122199) (09:06:39 25/06/2022)
::1()--query--tables(delete from table_user_online where time < 1656122199) (09:06:39 25/06/2022)
::1()--query--tables(delete from table_user_online where time < 1656122199) (09:06:39 25/06/2022)
